<svg xmlns="http://www.w3.org/2000/svg" width="233.533" height="278.231" viewBox="0 0 233.533 278.231">
  <g id="Group_69" data-name="Group 69" transform="translate(-86.447 -499.847)">
    <path id="Path_243" data-name="Path 243" d="M14120.455-19.153s8.865,17.209,40.107,17.209,42.488-17.209,42.488-17.209a54.327,54.327,0,0,0,43.184,17.209c27.789-1.533,39.734-17.209,39.734-17.209l34.01,35.953s-12.852,18.99-14.715,40.286,7.266,44.9,7.266,44.9,6.744,27.025,4.234,49.779S14302.488,193,14302.488,193a131.693,131.693,0,0,1-24.057,25.843c-14.252,11.337-32.949,19.5-32.949,19.5s-18.539,7.321-29.146,12.5-13.285,8.226-13.285,8.226-4.393-3.81-15.08-8.992-27.676-11.737-27.676-11.737-17.486-7.016-31.738-18.353S14103.289,193,14103.289,193a90.475,90.475,0,0,1-14.021-38.745c-2.592-22.754,3.656-52.271,3.656-52.271s9.27-24.37,7.65-45.666-14.129-39.52-14.129-39.52Z" transform="translate(-13999.998 519)" fill="#bfbfbf"/>
    <path id="Path_244" data-name="Path 244" d="M14106.139,10.569l8.434-9.2s19.5,9.2,39.48,9.2,40.439-9.2,40.439-9.2,21.561,9.2,41.207,9.2,37.373-9.2,37.373-9.2l9.773,9.2a51.4,51.4,0,0,0-9.773,22.041c-2.443,13.368,0,31.432,0,31.432s2.23,10.846,4.963,24.119c.834,4.061,1.979,7.354,3.469,14.6s2.3,14.374,2.3,14.374,2.014,17.489-1.342,31.623a71.47,71.47,0,0,1-11.883,24.915,84.5,84.5,0,0,1-15.141,14.949c-9.439,7.235-22.615,13.991-22.615,13.991s-6.373,3.356-13.033,6.133c-5.355,2.234-10.922,3.866-13.607,4.791-5.561,1.917-12.459,6.516-12.459,6.516a58.8,58.8,0,0,0-10.541-6.516c-2.586-1.254-7.568-2.06-14.947-4.791s-14.566-6.133-14.566-6.133A85.639,85.639,0,0,1,14137,192.069a246.992,246.992,0,0,1-19.934-18.4s-9.631-13.656-12.842-27.79,0-28.749,0-28.749-.861-1.1,1.727-14.374c1.486-7.632,7.092-28.557,7.092-28.557l1.533-10.158s2.107-18.064,0-31.432A55.171,55.171,0,0,0,14106.139,10.569Z" transform="translate(-13991.188 530.06)" fill="#fff"/>
    <path id="Path_245" data-name="Path 245" d="M14165.531,70.528l15.141-33.54,15.523,33.54,35.84,2.683-27.406,24.724,7.857,36.032-31.814-18.207-31.623,18.207,7.475-36.032-29.131-24.724Z" transform="translate(-13977.934 549.256)" fill="#27aae2"/>
  </g>
</svg>
