<svg xmlns="http://www.w3.org/2000/svg" width="229.927" height="229.813" viewBox="0 0 229.927 229.813">
  <g id="Group_64" data-name="Group 64" transform="translate(-133.872 -115.379)">
    <path id="Path_224" data-name="Path 224" d="M8696.683,42.4s23.906-.809,46.251,8.865,31.364,19.192,41.954,30.066c3.77,3.72-4.167-4.412,5.382,6.627,10.865,16.383,6.237,9.575,12.327,20.9,10.972,20.4,10.615,47.995,10.615,54.365,0,8.872-3.843,48.066-33.256,75.31-10.033,9.29-14.408,15.666-35.227,24.082a134.578,134.578,0,0,1-48.047,9.584c-7.792,0-47.529-1.39-75.959-28.634-9.323-8.936-16.078-12.983-25.517-33.068s-11.8-40.809-11.8-46.85-3.327-48.747,25.1-78.952c10.941-11.629,25.511-25.2,40.976-31.99C8673.061,42.342,8696.683,42.4,8696.683,42.4Z" transform="translate(-8449.414 73)"/>
    <path id="Path_225" data-name="Path 225" d="M12590.927,92.032a111.089,111.089,0,0,1,3.041,22.3,112.767,112.767,0,0,1-2.129,23.315,110.67,110.67,0,0,1-7.806,22.3,121.258,121.258,0,0,1-12.772,19.666,110.357,110.357,0,0,1-16.914,16,103.332,103.332,0,0,1-20.085,11.872,126.6,126.6,0,0,1-23.789,7.059,95.138,95.138,0,0,1-24.666,1.051c-12.806-1.281-26.557-6.173-26.557-6.173a118.222,118.222,0,0,1-20.377-10.857,127.892,127.892,0,0,1-17.928-15.423s5.578-16.608,11.034-26.24,10.79-12.289,10.79-12.289a3.1,3.1,0,0,0,2.084-2.815,3.571,3.571,0,0,0-2.084-3.041s-4.606-1.489-8.56-3.142-7.3-3.447-7.3-3.447a20.4,20.4,0,0,1-3.952-2.027,23.319,23.319,0,0,1-3.573-3.121,49.377,49.377,0,0,0-4.74-3.671c-2.839-1.949-6.618-4.124-6.618-4.124a2.7,2.7,0,0,0-2.606-1.654,2.659,2.659,0,0,0-2.293,1.654s-1.2,1.49-2.37,6.557-2.308,13.709-2.308,13.709-2.315-3.91-2.761-13.709c-.214-4.713-.245-9.746,0-16.118a52.573,52.573,0,0,1,.98-9.369,62.522,62.522,0,0,1,4.494-17.9,132.339,132.339,0,0,1,6.081-13.482,64.186,64.186,0,0,1,5.682-9.152s-1.193,4.076-1.829,7.733a52.387,52.387,0,0,0-.71,6.893s.239,3.624,2.165,4.941,5.54.33,5.54.33a35.627,35.627,0,0,0,8.616-3.345,25.03,25.03,0,0,0,6.479-5.8s2.543-3.595,4.8-7.5,4.334-7.886,4.334-7.886.677,10.088,1.184,15.384.843,5.8.843,5.8a11.818,11.818,0,0,0,3.056,4.575c1.951,1.521,3.479,2.159,4.75,1.507s1.924-1.235,2.988-4.326a35.514,35.514,0,0,0,1.27-8.041s.811-4.249,1.85-7.975,2.306-6.927,2.306-6.927a10.617,10.617,0,0,1,2.252-2.97,9.808,9.808,0,0,1,3.223-1.693s11.474-.527,14.232-.707,6.345,1.518,6.345,1.518a11.366,11.366,0,0,1,3.973,3.852,20.023,20.023,0,0,1,2.009,6.285l.608,10.036a5.448,5.448,0,0,1-.608,2,2.411,2.411,0,0,1-1.318.937h-7.1a13.74,13.74,0,0,0-7.751,4.461c-2.965,3.7-4.109,10.338-4.109,10.338s-.976,4.819,1.711,7.6,9.035,3.511,9.035,3.511l24.633,8.66,10.643,11.759a126.834,126.834,0,0,1,3.435,14.7,109.76,109.76,0,0,1,1.229,14.394l.87,20.035a39.842,39.842,0,0,0,1.8,6.118c1.14,2.819,1.229,3.909,3.358,4.619s5.225-1.882,5.225-1.882a138.976,138.976,0,0,0,9.712-11.554,98.962,98.962,0,0,0,7.216-11.558s3.787-6.689,6.22-12.315a67.948,67.948,0,0,0,3.512-10.189,27.9,27.9,0,0,0,1.407-9.005,21.042,21.042,0,0,0-2.319-8.025s-2.161-5.111-2.06-8.71a8.337,8.337,0,0,1,2.465-5.684s6.544-3.547,10.371-6.132,4.936-4.208,4.936-4.208a22.182,22.182,0,0,0,4.422-5.149,10.129,10.129,0,0,0,1.153-5.19l.71-11.86a92,92,0,0,1,5.395,11.172A88.432,88.432,0,0,1,12590.927,92.032Z" transform="translate(-12246.249 114.122)" fill="#27aae2"/>
  </g>
</svg>
