<svg xmlns="http://www.w3.org/2000/svg" width="282.261" height="252.257" viewBox="0 0 282.261 252.257">
  <g id="Group_62" data-name="Group 62" transform="translate(-1281.509 -128.45)">
    <g id="Group_53" data-name="Group 53" transform="translate(15)">
      <g id="Group_8" data-name="Group 8" transform="translate(1219 -182)">
        <circle id="Ellipse_14" data-name="Ellipse 14" cx="13" cy="13" r="13" transform="translate(102 427)" fill="#27aae2"/>
        <circle id="Ellipse_15" data-name="Ellipse 15" cx="13" cy="13" r="13" transform="translate(153 427)" fill="#27aae2"/>
        <circle id="Ellipse_16" data-name="Ellipse 16" cx="13" cy="13" r="13" transform="translate(204 427)" fill="#27aae2"/>
      </g>
      <g id="Group_9" data-name="Group 9" transform="translate(1219 -182)">
        <path id="Path_13" data-name="Path 13" d="M-3647.615-7066.693v-25.857h212.385v138.056h-27.7" transform="translate(3755 7413)" fill="none" stroke="#000" stroke-linejoin="round" stroke-width="20"/>
        <path id="Path_14" data-name="Path 14" d="M-3622.23-6904.169h135.285v-137.594h-210.546v137.594h40.632v30.936Z" transform="translate(3755 7414)" fill="none" stroke="#000" stroke-linejoin="round" stroke-width="20"/>
        <path id="Path_15" data-name="Path 15" d="M-3660.8-6913.05h14.081v10.508l-14.081-1.681Z" transform="translate(3755 7413)"/>
        <path id="Path_16" data-name="Path 16" d="M-3620.92-6891.032l-45.912,40.739v-28.129Z" transform="translate(3755 7413)"/>
      </g>
    </g>
  </g>
</svg>
