<svg xmlns="http://www.w3.org/2000/svg" width="216.501" height="231.625" viewBox="0 0 216.501 231.625">
  <g id="Group_58" data-name="Group 58" transform="translate(-60.393 -101.173)">
    <path id="Path_108" data-name="Path 108" d="M8415.485,41.023a109.055,109.055,0,0,1,22.6-8.218,112.2,112.2,0,0,1,24.153-2.267s14.517,1.253,26.419,5.362a86.779,86.779,0,0,1,21.188,11.074S8523.173,57.192,8531.6,68.6a83.4,83.4,0,0,1,11.969,24s3.955,13.237,4.38,25.918a100.11,100.11,0,0,1-2.68,24.807,110.519,110.519,0,0,1-8,20.316,96.4,96.4,0,0,1-12.119,17.09,102.368,102.368,0,0,1-15.783,14.082,104.532,104.532,0,0,1-18.789,10.006,106.769,106.769,0,0,1-22.628,5.384,133.527,133.527,0,0,1-24.851,0,125.373,125.373,0,0,1-25.067-9.068A118.935,118.935,0,0,1,8396.5,186.4a83.093,83.093,0,0,1-14.65-17.569c-6.233-10.272-10.287-23.52-10.287-23.52a94.547,94.547,0,0,1-3.228-21.777,150.731,150.731,0,0,1,2.094-25.264,185.359,185.359,0,0,1,9.459-21.82A66.492,66.492,0,0,1,8392.313,60.1l-34.92-40.044s13.514-12.038,25.982-19.9A118.227,118.227,0,0,1,8407.268-11.4a155.06,155.06,0,0,1,25.5-7.629,116.787,116.787,0,0,1,24.37-1.722,163.8,163.8,0,0,1,46.474,6.8s9.16,3.455,17.307,7.564A164.992,164.992,0,0,1,8536.2,2.483l12.469-16.436,25.221,64.044-67.728-6.8L8517.5,28.554A97.548,97.548,0,0,0,8496.29,17.59c-11.831-4.251-26.113-6.038-26.113-6.038a139.6,139.6,0,0,0-19.445,0,137.259,137.259,0,0,0-19.094,3.117,118.378,118.378,0,0,0-20.8,6.845A129.257,129.257,0,0,0,8391.4,32.8l29.754,34.856s-9.68,6.915-16.2,16.2-9.873,20.926-9.873,20.926a98.683,98.683,0,0,0-1.462,18.747,73.614,73.614,0,0,0,2.879,16.959,67.2,67.2,0,0,0,7.366,15.956,60.049,60.049,0,0,0,11.62,12.382,61.713,61.713,0,0,0,14.756,10.071c8.431,3.967,18.966,5.8,18.966,5.8a92.087,92.087,0,0,0,20.707-1,105.8,105.8,0,0,0,20.666-6.365,139.948,139.948,0,0,0,15.586-13.689,74.653,74.653,0,0,0,10.2-13.8,75.372,75.372,0,0,0,5.668-18.463,77.959,77.959,0,0,0,0-19.509A57.2,57.2,0,0,0,8517.5,94.32c-3.967-8.856-11.335-17.875-11.335-17.875s-8.508-8.044-17.5-12.861a68.055,68.055,0,0,0-18.484-6.409,110.788,110.788,0,0,0-19.445,0,92.184,92.184,0,0,0-17.96,3.967Z" transform="translate(-8297 122)"/>
    <path id="Path_109" data-name="Path 109" d="M8573.532,221.563l30.954,2.18a7.1,7.1,0,0,1,3.31,2.063,5.774,5.774,0,0,1,1.526,3.969,6.878,6.878,0,0,1-1.221,4.427,7.571,7.571,0,0,1-3.615,2.4l-31.876,2.024a9.39,9.39,0,0,1-5.647,3.892,18.867,18.867,0,0,1-7.784-.84,6.863,6.863,0,0,1-4.351-3.053,13,13,0,0,1-1.832-3.663,19.735,19.735,0,0,1-.763-4.427,15.385,15.385,0,0,1,1.222-5.19,13.521,13.521,0,0,1,2.856-3.785l1.962-37.493a7.183,7.183,0,0,1,1.974-3.676,5.653,5.653,0,0,1,4.122-1.45,6.545,6.545,0,0,1,4.273,1.755,6.759,6.759,0,0,1,2.056,3.37Z" transform="translate(-8403.67 12.631)" fill="#27aae2"/>
  </g>
</svg>
